-------------------- Auto-Git Log --------------------
		Thu Feb 20 2020 16:12:35 GMT+0700 (Western Indonesia Time)
------------------------------------------------------

Modified files:


Created files:
* .autogit/logs/log-20-1-2020-15-42-29.txt


Deleted files:


Renamed files:
