-------------------- Auto-Git Log --------------------
		Tue Feb 04 2020 15:17:04 GMT+0700 (Western Indonesia Time)
------------------------------------------------------

Modified files:
* src/app/edit-obs/edit-obs.page.html
* src/app/edit-obs/edit-obs.page.ts


Created files:
* .autogit/logs/log-4-1-2020-14-46-59.txt


Deleted files:


Renamed files:
