-------------------- Auto-Git Log --------------------
		Thu Feb 20 2020 18:43:04 GMT+0700 (Western Indonesia Time)
------------------------------------------------------

Modified files:


Created files:
* .autogit/logs/log-20-1-2020-18-12-58.txt


Deleted files:


Renamed files:
