-------------------- Auto-Git Log --------------------
		Wed Feb 26 2020 21:02:35 GMT+0700 (Western Indonesia Time)
------------------------------------------------------

Modified files:


Created files:
* .autogit/logs/log-26-1-2020-20-32-29.txt


Deleted files:


Renamed files:
