-------------------- Auto-Git Log --------------------
		Wed Mar 04 2020 04:27:26 GMT+0700 (Western Indonesia Time)
------------------------------------------------------

Modified files:


Created files:
* .autogit/logs/log-4-2-2020-0-55-53.txt


Deleted files:


Renamed files:
