-------------------- Auto-Git Log --------------------
		Wed Mar 04 2020 19:26:31 GMT+0700 (Western Indonesia Time)
------------------------------------------------------

Modified files:


Created files:
* .autogit/logs/log-4-2-2020-18-56-25.txt


Deleted files:


Renamed files:
