-------------------- Auto-Git Log --------------------
		Mon Aug 03 2020 16:17:49 GMT+0700 (Western Indonesia Time)
------------------------------------------------------

Modified files:


Created files:
* .autogit/logs/log-3-7-2020-14-38-3.txt
* .autogit/logs/log-3-7-2020-15-31-20.txt


Deleted files:


Renamed files:
