-------------------- Auto-Git Log --------------------
		Tue Jul 07 2020 13:53:00 GMT+0700 (Western Indonesia Time)
------------------------------------------------------

Modified files:


Created files:
* .autogit/logs/log-7-6-2020-13-22-54.txt


Deleted files:


Renamed files:
