-------------------- Auto-Git Log --------------------
		Fri Feb 28 2020 08:16:52 GMT+0700 (Western Indonesia Time)
------------------------------------------------------

Modified files:


Created files:
* .autogit/logs/log-28-1-2020-7-46-47.txt


Deleted files:


Renamed files:
