-------------------- Auto-Git Log --------------------
		Thu Jul 02 2020 15:19:16 GMT+0700 (Western Indonesia Time)
------------------------------------------------------

Modified files:


Created files:
* .autogit/logs/log-2-6-2020-14-49-10.txt


Deleted files:


Renamed files:
