-------------------- Auto-Git Log --------------------
		Wed Mar 04 2020 11:24:53 GMT+0700 (Western Indonesia Time)
------------------------------------------------------

Modified files:
* src/app/services/observasi.service.ts
* src/app/tambah-obs/tambah-obs.page.ts


Created files:
* .autogit/logs/log-4-2-2020-10-54-47.txt


Deleted files:


Renamed files:
