-------------------- Auto-Git Log --------------------
		Wed Feb 19 2020 20:20:58 GMT+0700 (Western Indonesia Time)
------------------------------------------------------

Modified files:


Created files:
* .autogit/logs/log-19-1-2020-19-20-47.txt


Deleted files:


Renamed files:
