-------------------- Auto-Git Log --------------------
		Wed Feb 19 2020 12:20:23 GMT+0700 (Western Indonesia Time)
------------------------------------------------------

Modified files:
* src/app/home/home.page.html


Created files:
* .autogit/logs/log-19-1-2020-11-50-17.txt


Deleted files:


Renamed files:
