-------------------- Auto-Git Log --------------------
		Thu Feb 20 2020 00:51:53 GMT+0700 (Western Indonesia Time)
------------------------------------------------------

Modified files:


Created files:
* .autogit/logs/log-20-1-2020-0-21-48.txt


Deleted files:


Renamed files:
