-------------------- Auto-Git Log --------------------
		Mon Feb 10 2020 14:34:35 GMT+0700 (Western Indonesia Time)
------------------------------------------------------

Modified files:


Created files:
* .autogit/logs/log-10-1-2020-14-4-28.txt


Deleted files:


Renamed files:
