-------------------- Auto-Git Log --------------------
		Mon Aug 03 2020 14:05:29 GMT+0700 (Western Indonesia Time)
------------------------------------------------------

Modified files:


Created files:
* .autogit/logs/log-3-7-2020-13-35-16.txt


Deleted files:


Renamed files:
