-------------------- Auto-Git Log --------------------
		Mon Feb 10 2020 08:22:11 GMT+0700 (Western Indonesia Time)
------------------------------------------------------

Modified files:
* src/app/edit-obs/edit-obs.page.html
* src/app/tambah-obs/tambah-obs.page.html


Created files:
* .autogit/logs/log-10-1-2020-7-52-6.txt


Deleted files:


Renamed files:
