-------------------- Auto-Git Log --------------------
		Thu Mar 05 2020 12:51:58 GMT+0700 (Western Indonesia Time)
------------------------------------------------------

Modified files:


Created files:
* .autogit/logs/log-5-2-2020-12-21-52.txt


Deleted files:


Renamed files:
