-------------------- Auto-Git Log --------------------
		Wed Jul 08 2020 15:06:23 GMT+0700 (Western Indonesia Time)
------------------------------------------------------

Modified files:


Created files:
* .autogit/logs/log-8-6-2020-14-36-18.txt


Deleted files:


Renamed files:
