-------------------- Auto-Git Log --------------------
		Mon Feb 10 2020 07:22:00 GMT+0700 (Western Indonesia Time)
------------------------------------------------------

Modified files:
* src/app/edit-obs/edit-obs.page.html
* src/app/home/home.page.html
* src/app/services/global.service.ts
* src/app/set-pic-obs/set-pic-obs.page.html


Created files:
* .autogit/logs/log-9-1-2020-23-58-33.txt


Deleted files:


Renamed files:
