-------------------- Auto-Git Log --------------------
		Mon Feb 03 2020 14:52:12 GMT+0700 (Western Indonesia Time)
------------------------------------------------------

Modified files:
* src/app/tambah-obs/tambah-obs.page.html
* src/app/tambah-obs/tambah-obs.page.ts


Created files:
* .autogit/logs/log-3-1-2020-14-22-6.txt


Deleted files:


Renamed files:
