-------------------- Auto-Git Log --------------------
		Sun Mar 01 2020 08:03:05 GMT+0700 (Western Indonesia Time)
------------------------------------------------------

Modified files:


Created files:
* .autogit/logs/log-1-2-2020-7-33-0.txt


Deleted files:


Renamed files:
