-------------------- Auto-Git Log --------------------
		Thu Mar 05 2020 18:50:20 GMT+0700 (Western Indonesia Time)
------------------------------------------------------

Modified files:
* src/app/edit-obs/edit-obs.page.html
* src/app/edit-obs/edit-obs.page.ts
* src/app/tambah-obs/tambah-obs.page.ts


Created files:
* .autogit/logs/log-5-2-2020-18-20-14.txt


Deleted files:


Renamed files:
