-------------------- Auto-Git Log --------------------
		Thu Feb 20 2020 02:52:18 GMT+0700 (Western Indonesia Time)
------------------------------------------------------

Modified files:


Created files:
* .autogit/logs/log-20-1-2020-2-22-11.txt


Deleted files:


Renamed files:
