-------------------- Auto-Git Log --------------------
		Tue Feb 04 2020 12:16:30 GMT+0700 (Western Indonesia Time)
------------------------------------------------------

Modified files:


Created files:
* .autogit/logs/log-4-1-2020-11-46-26.txt


Deleted files:


Renamed files:
