-------------------- Auto-Git Log --------------------
		Wed Jul 08 2020 12:35:54 GMT+0700 (Western Indonesia Time)
------------------------------------------------------

Modified files:


Created files:
* .autogit/logs/log-8-6-2020-12-5-47.txt


Deleted files:


Renamed files:
