-------------------- Auto-Git Log --------------------
		Mon Jun 29 2020 16:01:02 GMT+0700 (Western Indonesia Time)
------------------------------------------------------

Modified files:


Created files:
* .autogit/logs/log-29-5-2020-15-30-54.txt


Deleted files:


Renamed files:
