-------------------- Auto-Git Log --------------------
		Wed Mar 04 2020 13:55:27 GMT+0700 (Western Indonesia Time)
------------------------------------------------------

Modified files:


Created files:
* .autogit/logs/log-4-2-2020-13-25-20.txt


Deleted files:


Renamed files:
