-------------------- Auto-Git Log --------------------
		Sun Feb 09 2020 18:27:28 GMT+0700 (Western Indonesia Time)
------------------------------------------------------

Modified files:


Created files:
* .autogit/logs/log-9-1-2020-17-57-21.txt


Deleted files:


Renamed files:
